   ___      ___      _      __   __   _  __   __  __     ___      ___     _____     ___      ___
  / __|    /   \    | |     \ \ / /  | |/ /  |  \/  |   /   \    / __|   |_   _|   | __|    | _ \
  \__ \    | - |    | |__    \ V /   | ' <   | |\/| |   | - |    \__ \     | |     | _|     |   /
  |___/    |_|_|    |____|   _|_|_   |_|\_\  |_|__|_|   |_|_|    |___/    _|_|_    |___|    |_|_\
_|"""""| _|"""""| _|"""""| _| """ | _|"""""| _|"""""| _|"""""| _|"""""| _|"""""| _|"""""| _|"""""|
"`-0-0-' "`-0-0-' "`-0-0-' "`-0-0-' "`-0-0-' "`-0-0-' "`-0-0-' "`-0-0-' "`-0-0-' "`-0-0-' "`-0-0-'